﻿thisRow.t,notes,welcome.started,welcome_message.started,spacebar.started,welcome.stopped,spacebar.keys,instructions_general.started,text.started,key_resp.started,key_resp.stopped,instructions_general.stopped,key_resp.keys,instruction_shape.started,text_3.started,key_resp_3.started,image.started,image_2.started,image_3.started,instruction_shape.stopped,key_resp_3.keys,key_resp_3.rt,key_resp_3.duration,end_screen.started,text_2.started,key_resp_2.started,text_2.stopped,key_resp_2.stopped,end_screen.stopped,key_resp_2.keys,participant,session,age,gender,lefthanded,likey,date,expName,psychopyVersion,frameRate,expStart,
,,2.0308037999784574,2.0507202000007965,2.0507202000007965,10.009865999978501,None,,,,,,,,,,,,,,,,,,,,,,,,1,001,11,f,False,yes,2024-02-13_12h09.15.765,choice_rtt,2023.2.3,60.20473222239307,2024-02-13 12h09.41.556442 +0100,
,,,,,,,10.009921699995175,10.027155000017956,15.010359400010202,30.01019970001653,30.010452899965458,None,,,,,,,,,,,,,,,,,,1,001,11,f,False,yes,2024-02-13_12h09.15.765,choice_rtt,2023.2.3,60.20473222239307,2024-02-13 12h09.41.556442 +0100,
,,,,,,,,,,,,,30.01050520001445,30.1195638999925,30.1195638999925,30.1195638999925,30.1195638999925,30.1195638999925,35.77905670000473,space,5.642159899987746,None,,,,,,,,1,001,11,f,False,yes,2024-02-13_12h09.15.765,choice_rtt,2023.2.3,60.20473222239307,2024-02-13 12h09.41.556442 +0100,
,,,,,,,,,,,,,,,,,,,,,,,35.779135899967514,35.79275159997633,36.792720299970824,45.79222589998972,45.79222589998972,45.777218299976084,None,1,001,11,f,False,yes,2024-02-13_12h09.15.765,choice_rtt,2023.2.3,60.20473222239307,2024-02-13 12h09.41.556442 +0100,
